^C:\USERS\BRUNO\DESKTOP\NATIVEVM\DEBUG\MAIN.OBJ
/OUT:"C:\USERS\BRUNO\DESKTOP\NATIVEVM\DEBUG\TINYVM.EXE" /INCREMENTAL /NOLOGO KERNEL32.LIB USER32.LIB GDI32.LIB WINSPOOL.LIB COMDLG32.LIB ADVAPI32.LIB SHELL32.LIB OLE32.LIB OLEAUT32.LIB UUID.LIB ODBC32.LIB ODBCCP32.LIB /MANIFEST /MANIFESTUAC:"level='asInvoker' uiAccess='false'" /manifest:embed /DEBUG:FASTLINK /PDB:"C:\USERS\BRUNO\DESKTOP\NATIVEVM\DEBUG\TINYVM.PDB" /TLBID:1 /DYNAMICBASE /NXCOMPAT /IMPLIB:"C:\USERS\BRUNO\DESKTOP\NATIVEVM\DEBUG\TINYVM.LIB" /MACHINE:X86 DEBUG\MAIN.OBJ
^C:\USERS\BRUNO\DOCUMENTS\VISUAL STUDIO 2017\PROJECTS\TINYVM\DEBUG\MAIN.OBJ
/OUT:"C:\USERS\BRUNO\DOCUMENTS\VISUAL STUDIO 2017\PROJECTS\TINYVM\DEBUG\TINYVM.EXE" /INCREMENTAL /NOLOGO KERNEL32.LIB USER32.LIB GDI32.LIB WINSPOOL.LIB COMDLG32.LIB ADVAPI32.LIB SHELL32.LIB OLE32.LIB OLEAUT32.LIB UUID.LIB ODBC32.LIB ODBCCP32.LIB /MANIFEST /MANIFESTUAC:"level='asInvoker' uiAccess='false'" /manifest:embed /DEBUG:FASTLINK /PDB:"C:\USERS\BRUNO\DOCUMENTS\VISUAL STUDIO 2017\PROJECTS\TINYVM\DEBUG\TINYVM.PDB" /TLBID:1 /DYNAMICBASE /NXCOMPAT /IMPLIB:"C:\USERS\BRUNO\DOCUMENTS\VISUAL STUDIO 2017\PROJECTS\TINYVM\DEBUG\TINYVM.LIB" /MACHINE:X86 DEBUG\MAIN.OBJ
