^C:\USERS\BRUNO\DOCUMENTS\VISUAL STUDIO 2017\PROJECTS\TINYVM\MAIN.C
C:\USERS\BRUNO\DOCUMENTS\VISUAL STUDIO 2017\PROJECTS\TINYVM\RELEASE\VC141.PDB
C:\USERS\BRUNO\DOCUMENTS\VISUAL STUDIO 2017\PROJECTS\TINYVM\RELEASE\MAIN.OBJ
